…
**Participants with accuracy of lower than 85% on non-critical trials:**

    ## # A tibble: 141 x 4
    ## # Groups:   workerid, gaveRightAnswer [141]
    ##    workerid gaveRightAnswer     n accuracy
    ##       <int> <chr>           <int>    <dbl>
    ##  1       19 1                  27    42.2 
    ##  2       24 1                  49    76.6 
    ##  3       31 1                  44    68.8 
    ##  4       51 1                  28    43.8 
    ##  5       71 1                  54    84.4 
    ##  6       73 1                   4     6.25
    ##  7       77 1                  45    70.3 
    ##  8       83 1                  54    84.4 
    ##  9       88 1                  31    48.4 
    ## 10       95 1                  48    75   
    ## # … with 131 more rows
…
