…
**Participants who got the audio check wrong more than one once:**

    ## 
    ## 366 
    ##   1

**Participants who got the second comprehension question wrong more than twice:**

    ## # A tibble: 0 x 2
    ## # Groups:   workerid [0]
    ## # … with 2 variables: workerid <int>, n <int>

**Participants with accuracy of lower than 85% on non-critical trials:**

    ## # A tibble: 26 x 4
    ## # Groups:   workerid, gaveRightAnswer [26]
    ##    workerid gaveRightAnswer     n accuracy
    ##       <int> <chr>           <int>    <dbl>
    ##  1       19 1                  36    56.2 
    ##  2       26 1                  35    54.7 
    ##  3       76 1                  32    50   
    ##  4      129 1                  33    51.6 
    ##  5      153 1                  33    51.6 
    ##  6      157 1                  33    51.6 
    ##  7      168 1                   5     7.81
    ##  8      195 1                  34    53.1 
    ##  9      259 1                  32    50   
    ## 10      280 1                  53    82.8 
    ## # … with 16 more rows
…
